<?xml version="1.0" encoding="UTF-8"?>
<!DOCTYPE svg PUBLIC "-//W3C//DTD SVG 1.1//EN" "http://www.w3.org/Graphics/SVG/1.1/DTD/svg11.dtd">
<svg xmlns="http://www.w3.org/2000/svg" version="1.1" width="512px" height="512px" style="shape-rendering:geometricPrecision; text-rendering:geometricPrecision; image-rendering:optimizeQuality; fill-rule:evenodd; clip-rule:evenodd" xmlns:xlink="http://www.w3.org/1999/xlink">
<g><path style="opacity:1" fill="#42c2fb" d="M 248.5,-0.5 C 253.167,-0.5 257.833,-0.5 262.5,-0.5C 269.761,3.75871 275.761,9.42538 280.5,16.5C 259.849,39.3204 241.682,63.987 226,90.5C 213.805,111.582 206.972,134.248 205.5,158.5C 207.533,202.077 228.2,233.244 267.5,252C 271.896,254.299 276.562,255.466 281.5,255.5C 232.162,266.421 193.996,250.421 167,207.5C 150.458,174.238 150.458,140.905 167,107.5C 176.501,87.1419 188.001,68.1419 201.5,50.5C 208.803,41.5246 216.137,32.5246 223.5,23.5C 229.662,17.1704 235.662,10.6704 241.5,4C 243.898,2.47576 246.231,0.97576 248.5,-0.5 Z"/></g>
<g><path style="opacity:1" fill="#89e0fe" d="M 280.5,16.5 C 283.167,18.5 285.5,20.8333 287.5,23.5C 294.863,32.5246 302.197,41.5246 309.5,50.5C 325.368,70.921 338.201,93.2544 348,117.5C 364.548,163.131 355.382,202.631 320.5,236C 309.141,245.68 296.141,252.18 281.5,255.5C 276.562,255.466 271.896,254.299 267.5,252C 228.2,233.244 207.533,202.077 205.5,158.5C 206.972,134.248 213.805,111.582 226,90.5C 241.682,63.987 259.849,39.3204 280.5,16.5 Z"/></g>
<g><path style="opacity:0.988" fill="#47477e" d="M 223.5,23.5 C 216.137,32.5246 208.803,41.5246 201.5,50.5C 201.083,49.8761 200.416,49.5427 199.5,49.5C 139.611,68.219 96.7781,106.219 71,163.5C 50.1595,216.308 50.4928,268.975 72,321.5C 72.4169,322.756 73.2502,323.423 74.5,323.5C 56.7873,328.319 39.1207,333.653 21.5,339.5C -2.76992,254.684 12.3967,177.684 67,108.5C 108.243,60.4549 160.41,32.1215 223.5,23.5 Z"/></g>
<g><path style="opacity:0.988" fill="#47477e" d="M 287.5,23.5 C 368.204,35.4259 429.037,76.4259 470,146.5C 503.044,208.277 509.544,272.61 489.5,339.5C 471.864,333.68 454.198,328.347 436.5,323.5C 446.167,305.205 452,285.538 454,264.5C 460.21,195.115 437.71,136.948 386.5,90C 364.348,71.1698 339.182,57.6698 311,49.5C 310.235,49.5699 309.735,49.9033 309.5,50.5C 302.197,41.5246 294.863,32.5246 287.5,23.5 Z"/></g>
<g><path style="opacity:1" fill="#3b3868" d="M 201.5,50.5 C 188.001,68.1419 176.501,87.1419 167,107.5C 150.458,140.905 150.458,174.238 167,207.5C 193.996,250.421 232.162,266.421 281.5,255.5C 296.141,252.18 309.141,245.68 320.5,236C 355.382,202.631 364.548,163.131 348,117.5C 338.201,93.2544 325.368,70.921 309.5,50.5C 309.735,49.9033 310.235,49.5699 311,49.5C 339.182,57.6698 364.348,71.1698 386.5,90C 437.71,136.948 460.21,195.115 454,264.5C 452,285.538 446.167,305.205 436.5,323.5C 315.827,299.5 195.16,299.5 74.5,323.5C 73.2502,323.423 72.4169,322.756 72,321.5C 50.4928,268.975 50.1595,216.308 71,163.5C 96.7781,106.219 139.611,68.219 199.5,49.5C 200.416,49.5427 201.083,49.8761 201.5,50.5 Z"/></g>
<g><path style="opacity:1" fill="#b7efff" d="M 313.5,118.5 C 322.082,118.207 328.915,121.541 334,128.5C 344.638,147.409 345.305,166.742 336,186.5C 323.584,203.756 311.251,203.756 299,186.5C 290.486,168.126 290.486,149.792 299,131.5C 302.785,125.875 307.618,121.542 313.5,118.5 Z"/></g>
<g><path style="opacity:0.997" fill="#b6edfd" d="M 436.5,323.5 C 454.198,328.347 471.864,333.68 489.5,339.5C 487.328,349.026 483.994,358.026 479.5,366.5C 465.344,355.753 449.677,347.586 432.5,342C 400.604,331.554 367.938,324.554 334.5,321C 261.249,312.802 188.582,316.135 116.5,331C 92.0827,336.361 68.7493,344.694 46.5,356C 41.0836,359.03 36.0836,362.53 31.5,366.5C 27.0056,358.026 23.6723,349.026 21.5,339.5C 39.1207,333.653 56.7873,328.319 74.5,323.5C 195.16,299.5 315.827,299.5 436.5,323.5 Z"/></g>
<g><path style="opacity:0.998" fill="#8ae0fe" d="M 479.5,366.5 C 464.031,402.298 441.031,432.298 410.5,456.5C 307.136,480.319 203.803,480.319 100.5,456.5C 69.9686,432.298 46.9686,402.298 31.5,366.5C 36.0836,362.53 41.0836,359.03 46.5,356C 68.7493,344.694 92.0827,336.361 116.5,331C 188.582,316.135 261.249,312.802 334.5,321C 367.938,324.554 400.604,331.554 432.5,342C 449.677,347.586 465.344,355.753 479.5,366.5 Z"/></g>
<g><path style="opacity:1" fill="#42c3fb" d="M 222.5,328.5 C 269.038,326.177 315.038,330.011 360.5,340C 378.412,344.625 395.078,351.958 410.5,362C 425.316,373.998 426.316,386.998 413.5,401C 406.333,406.42 398.667,411.087 390.5,415C 365.662,424.626 339.996,430.959 313.5,434C 255.42,441.355 198.087,437.689 141.5,423C 124.685,418.177 109.519,410.344 96,399.5C 84.8443,385.572 86.3443,373.072 100.5,362C 113.659,352.922 127.993,346.255 143.5,342C 169.526,335.023 195.859,330.523 222.5,328.5 Z"/></g>
<g><path style="opacity:1" fill="#1aa9e8" d="M 235.5,339.5 C 265.373,338.127 294.707,341.294 323.5,349C 329.779,351.473 335.779,354.473 341.5,358C 350.365,365.36 350.698,373.027 342.5,381C 333.251,386.955 323.251,391.289 312.5,394C 273.086,402.875 233.753,402.542 194.5,393C 183.906,390.251 174.406,385.418 166,378.5C 160.327,368.956 162.493,361.456 172.5,356C 179.172,352.221 186.172,349.221 193.5,347C 207.407,343.295 221.407,340.795 235.5,339.5 Z"/></g>
<g><path style="opacity:0.984" fill="#b7efff" d="M 100.5,456.5 C 203.803,480.319 307.136,480.319 410.5,456.5C 371.855,488.279 327.521,506.612 277.5,511.5C 262.833,511.5 248.167,511.5 233.5,511.5C 183.472,506.611 139.138,488.277 100.5,456.5 Z"/></g>
</svg>
