<?xml version="1.0" encoding="UTF-8"?>
<!DOCTYPE svg PUBLIC "-//W3C//DTD SVG 1.1//EN" "http://www.w3.org/Graphics/SVG/1.1/DTD/svg11.dtd">
<svg xmlns="http://www.w3.org/2000/svg" version="1.1" width="512px" height="512px" style="shape-rendering:geometricPrecision; text-rendering:geometricPrecision; image-rendering:optimizeQuality; fill-rule:evenodd; clip-rule:evenodd" xmlns:xlink="http://www.w3.org/1999/xlink">
<g><path style="opacity:0.989" fill="#be7d52" d="M 252.5,-0.5 C 258.167,-0.5 263.833,-0.5 269.5,-0.5C 280.578,2.90716 288.578,9.90716 293.5,20.5C 288.455,24.8777 283.122,28.8777 277.5,32.5C 276.742,25.0739 272.742,20.4072 265.5,18.5C 256.008,15.9939 249.175,19.3272 245,28.5C 242.956,41.6178 248.456,49.2845 261.5,51.5C 258.214,57.0745 255.214,62.7412 252.5,68.5C 231.323,60.1483 223.323,44.815 228.5,22.5C 232.592,10.7413 240.592,3.07459 252.5,-0.5 Z"/></g>
<g><path style="opacity:0.98" fill="#bf7e52" d="M 422.5,-0.5 C 428.167,-0.5 433.833,-0.5 439.5,-0.5C 461.317,7.7932 469.483,23.4599 464,46.5C 459.142,57.1965 451.309,64.5298 440.5,68.5C 437.192,63.2308 433.858,57.8975 430.5,52.5C 431.602,51.8243 432.602,51.1577 433.5,50.5C 434.791,50.7373 435.791,50.404 436.5,49.5C 447.959,43.6088 450.459,34.9421 444,23.5C 441.687,20.9277 438.854,19.261 435.5,18.5C 424.359,15.9118 417.359,20.2451 414.5,31.5C 413.883,31.6107 413.383,31.944 413,32.5C 407.933,28.5822 403.1,24.5822 398.5,20.5C 403.395,9.93733 411.395,2.93733 422.5,-0.5 Z"/></g>
<g><path style="opacity:1" fill="#da9652" d="M 356.5,7.5 C 317.915,14.7251 290.748,36.3918 275,72.5C 261.218,115.783 270.384,153.283 302.5,185C 297.628,190.876 293.128,197.042 289,203.5C 286.928,206.971 285.428,210.638 284.5,214.5C 280.089,208.027 275.423,201.694 270.5,195.5C 271.167,194.5 271.833,193.5 272.5,192.5C 274.477,190.186 276.477,187.853 278.5,185.5C 261.245,168.994 250.245,148.994 245.5,125.5C 244.692,116.524 244.358,107.524 244.5,98.5C 245.748,88.0941 248.415,78.0941 252.5,68.5C 255.214,62.7412 258.214,57.0745 261.5,51.5C 262.906,51.0269 263.573,50.0269 263.5,48.5C 268.591,43.4177 273.257,38.0844 277.5,32.5C 283.122,28.8777 288.455,24.8777 293.5,20.5C 313.091,9.40101 334.091,5.06767 356.5,7.5 Z"/></g>
<g><path style="opacity:0.999" fill="#e9ab68" d="M 356.5,7.5 C 371.411,9.02673 385.411,13.3601 398.5,20.5C 403.1,24.5822 407.933,28.5822 413,32.5C 413.383,31.944 413.883,31.6107 414.5,31.5C 414.351,32.552 414.517,33.552 415,34.5C 420.055,39.0524 424.555,44.0524 428.5,49.5C 430.045,50.4519 431.712,50.7852 433.5,50.5C 432.602,51.1577 431.602,51.8243 430.5,52.5C 433.858,57.8975 437.192,63.2308 440.5,68.5C 445.969,82.9802 448.302,97.9802 447.5,113.5C 445.385,141.89 434.052,165.723 413.5,185C 437.282,213.385 445.948,245.885 439.5,282.5C 436.795,287.737 433.795,292.903 430.5,298C 427.518,298.498 424.518,298.665 421.5,298.5C 421.667,271.831 421.5,245.165 421,218.5C 419.749,215.619 417.583,213.786 414.5,213C 382.167,212.333 349.833,212.333 317.5,213C 315,214.167 313.167,216 312,218.5C 311.5,225.158 311.334,231.825 311.5,238.5C 305.143,235.717 298.476,234.383 291.5,234.5C 289.965,227.561 287.631,220.894 284.5,214.5C 285.428,210.638 286.928,206.971 289,203.5C 293.128,197.042 297.628,190.876 302.5,185C 270.384,153.283 261.218,115.783 275,72.5C 290.748,36.3918 317.915,14.7251 356.5,7.5 Z"/></g>
<g><path style="opacity:1" fill="#fdc785" d="M 265.5,18.5 C 255.753,23.3393 252.586,31.006 256,41.5C 257.736,44.7392 260.236,47.0726 263.5,48.5C 263.573,50.0269 262.906,51.0269 261.5,51.5C 248.456,49.2845 242.956,41.6178 245,28.5C 249.175,19.3272 256.008,15.9939 265.5,18.5 Z"/></g>
<g><path style="opacity:1" fill="#fdc886" d="M 435.5,18.5 C 424.005,24.5064 421.505,33.1731 428,44.5C 430.029,47.5956 432.862,49.2623 436.5,49.5C 435.791,50.404 434.791,50.7373 433.5,50.5C 431.712,50.7852 430.045,50.4519 428.5,49.5C 424.555,44.0524 420.055,39.0524 415,34.5C 414.517,33.552 414.351,32.552 414.5,31.5C 417.359,20.2451 424.359,15.9118 435.5,18.5 Z"/></g>
<g><path style="opacity:1" fill="#fedb8c" d="M 265.5,18.5 C 272.742,20.4072 276.742,25.0739 277.5,32.5C 273.257,38.0844 268.591,43.4177 263.5,48.5C 260.236,47.0726 257.736,44.7392 256,41.5C 252.586,31.006 255.753,23.3393 265.5,18.5 Z"/></g>
<g><path style="opacity:1" fill="#fedb8c" d="M 435.5,18.5 C 438.854,19.261 441.687,20.9277 444,23.5C 450.459,34.9421 447.959,43.6088 436.5,49.5C 432.862,49.2623 430.029,47.5956 428,44.5C 421.505,33.1731 424.005,24.5064 435.5,18.5 Z"/></g>
<g><path style="opacity:0.995" fill="#2e4c89" d="M 228.5,22.5 C 223.323,44.815 231.323,60.1483 252.5,68.5C 248.415,78.0941 245.748,88.0941 244.5,98.5C 234.201,94.5925 223.534,92.5925 212.5,92.5C 200.427,91.8409 189.094,94.1743 178.5,99.5C 171.847,101.823 165.847,105.156 160.5,109.5C 153.167,114.833 146.833,121.167 141.5,128.5C 137.406,134.351 134.073,140.685 131.5,147.5C 126.494,158.868 124.494,170.868 125.5,183.5C 93.9441,184.69 71.7774,199.69 59,228.5C 56.3138,236.284 54.8138,244.284 54.5,252.5C 43.1667,233.5 31.8333,214.5 20.5,195.5C 48.785,110.049 106.118,54.5491 192.5,29C 204.334,25.8663 216.334,23.6997 228.5,22.5 Z"/></g>
<g><path style="opacity:1" fill="#9a4434" d="M 293.5,69.5 C 307.531,68.6862 313.031,75.0196 310,88.5C 305.869,94.115 300.369,95.9483 293.5,94C 282.88,85.8355 282.88,77.6688 293.5,69.5 Z"/></g>
<g><path style="opacity:1" fill="#9a4434" d="M 388.5,69.5 C 403.442,68.9184 408.609,75.5851 404,89.5C 399.509,94.2591 394.009,95.7591 387.5,94C 377.855,85.3549 378.188,77.1882 388.5,69.5 Z"/></g>
<g><path style="opacity:1" fill="#913e30" d="M 364.5,92.5 C 364.54,95.4245 363.707,98.0912 362,100.5C 353.121,107.273 343.621,108.273 333.5,103.5C 329.171,101.18 327.171,97.5134 327.5,92.5C 328.473,87.3534 331.473,83.8534 336.5,82C 345.796,79.0863 354.296,80.5863 362,86.5C 363.559,88.2166 364.392,90.2166 364.5,92.5 Z"/></g>
<g><path style="opacity:1" fill="#3fb6fe" d="M 212.5,92.5 C 223.167,103.833 234.167,114.833 245.5,125.5C 250.245,148.994 261.245,168.994 278.5,185.5C 276.477,187.853 274.477,190.186 272.5,192.5C 241.167,161.5 209.833,130.5 178.5,99.5C 189.094,94.1743 200.427,91.8409 212.5,92.5 Z"/></g>
<g><path style="opacity:1" fill="#68cafc" d="M 212.5,92.5 C 223.534,92.5925 234.201,94.5925 244.5,98.5C 244.358,107.524 244.692,116.524 245.5,125.5C 234.167,114.833 223.167,103.833 212.5,92.5 Z"/></g>
<g><path style="opacity:1" fill="#d9e9fa" d="M 327.5,92.5 C 327.171,97.5134 329.171,101.18 333.5,103.5C 322.86,114.257 318.694,127.257 321,142.5C 322.891,151.616 326.891,159.616 333,166.5C 339.368,172.081 346.202,176.748 353.5,180.5C 328.716,182.535 311.549,172.202 302,149.5C 295.352,123.478 303.852,104.478 327.5,92.5 Z"/></g>
<g><path style="opacity:1" fill="#fefefe" d="M 364.5,92.5 C 383.943,102.04 393.109,117.707 392,139.5C 387.924,161.409 375.091,175.076 353.5,180.5C 346.202,176.748 339.368,172.081 333,166.5C 326.891,159.616 322.891,151.616 321,142.5C 318.694,127.257 322.86,114.257 333.5,103.5C 343.621,108.273 353.121,107.273 362,100.5C 363.707,98.0912 364.54,95.4245 364.5,92.5 Z"/></g>
<g><path style="opacity:1" fill="#6accfe" d="M 178.5,99.5 C 209.833,130.5 241.167,161.5 272.5,192.5C 271.833,193.5 271.167,194.5 270.5,195.5C 269.833,195.167 269.167,194.833 268.5,194.5C 254.926,180.877 238.592,172.21 219.5,168.5C 200.167,148.5 180.5,128.833 160.5,109.5C 165.847,105.156 171.847,101.823 178.5,99.5 Z"/></g>
<g><path style="opacity:1" fill="#fdfefe" d="M 160.5,109.5 C 180.5,128.833 200.167,148.5 219.5,168.5C 206.706,166.841 194.039,167.508 181.5,170.5C 168.535,157.035 155.369,143.701 142,130.5C 141.536,129.906 141.369,129.239 141.5,128.5C 146.833,121.167 153.167,114.833 160.5,109.5 Z"/></g>
<g><path style="opacity:0.995" fill="#2f4c88" d="M 447.5,113.5 C 467.314,138.122 481.647,165.788 490.5,196.5C 472.996,224.837 455.996,253.503 439.5,282.5C 445.948,245.885 437.282,213.385 413.5,185C 434.052,165.723 445.385,141.89 447.5,113.5 Z"/></g>
<g><path style="opacity:1" fill="#69ccfe" d="M 141.5,128.5 C 141.369,129.239 141.536,129.906 142,130.5C 155.369,143.701 168.535,157.035 181.5,170.5C 174.841,172.947 168.174,175.614 161.5,178.5C 151.5,168.167 141.5,157.833 131.5,147.5C 134.073,140.685 137.406,134.351 141.5,128.5 Z"/></g>
<g><path style="opacity:1" fill="#3fb6fd" d="M 131.5,147.5 C 141.5,157.833 151.5,168.167 161.5,178.5C 153.62,183.371 146.286,189.037 139.5,195.5C 135.108,191.103 130.442,187.103 125.5,183.5C 124.494,170.868 126.494,158.868 131.5,147.5 Z"/></g>
<g><path style="opacity:1" fill="#e92d3e" d="M 219.5,168.5 C 238.592,172.21 254.926,180.877 268.5,194.5C 261.564,191.032 254.564,187.532 247.5,184C 198.773,169.961 161.273,184.461 135,227.5C 131.977,233.208 129.811,239.208 128.5,245.5C 108.13,241.22 92.2969,247.554 81,264.5C 79.8644,267.096 79.031,269.763 78.5,272.5C 74.8333,272.5 71.1667,272.5 67.5,272.5C 67.5,270.167 67.5,267.833 67.5,265.5C 68.4216,257.324 71.7549,250.324 77.5,244.5C 89.5745,235.345 103.241,232.012 118.5,234.5C 120.852,224.462 124.852,215.129 130.5,206.5C 133.848,203.149 136.848,199.482 139.5,195.5C 146.286,189.037 153.62,183.371 161.5,178.5C 168.174,175.614 174.841,172.947 181.5,170.5C 194.039,167.508 206.706,166.841 219.5,168.5 Z"/></g>
<g><path style="opacity:1" fill="#fd3845" d="M 268.5,194.5 C 269.167,194.833 269.833,195.167 270.5,195.5C 275.423,201.694 280.089,208.027 284.5,214.5C 287.631,220.894 289.965,227.561 291.5,234.5C 298.476,234.383 305.143,235.717 311.5,238.5C 317.448,241.448 322.115,245.781 325.5,251.5C 327.361,253.888 328.694,256.554 329.5,259.5C 317.683,256.32 313.016,260.653 315.5,272.5C 313.016,284.347 317.683,288.68 329.5,285.5C 327.602,290.065 325.269,294.399 322.5,298.5C 309.833,298.5 297.167,298.5 284.5,298.5C 278.437,283.797 267.437,277.964 251.5,281C 242.921,284.078 237.255,289.911 234.5,298.5C 213.833,298.5 193.167,298.5 172.5,298.5C 166.437,283.797 155.437,277.964 139.5,281C 130.921,284.078 125.255,289.911 122.5,298.5C 110.5,298.5 98.5,298.5 86.5,298.5C 84.4727,298.662 82.4727,298.495 80.5,298C 79.7433,296.488 78.7433,295.154 77.5,294C 81.6877,293.824 85.6877,293.324 89.5,292.5C 90.4584,292.047 91.2917,291.381 92,290.5C 92.6667,285.5 92.6667,280.5 92,275.5C 91.2917,274.619 90.4584,273.953 89.5,273.5C 86.0381,272.518 82.3714,272.185 78.5,272.5C 79.031,269.763 79.8644,267.096 81,264.5C 92.2969,247.554 108.13,241.22 128.5,245.5C 129.811,239.208 131.977,233.208 135,227.5C 161.273,184.461 198.773,169.961 247.5,184C 254.564,187.532 261.564,191.032 268.5,194.5 Z"/></g>
<g><path style="opacity:1" fill="#6acbfa" d="M 125.5,183.5 C 130.442,187.103 135.108,191.103 139.5,195.5C 136.848,199.482 133.848,203.149 130.5,206.5C 128.278,199.891 126.612,193.225 125.5,186.5C 125.5,185.5 125.5,184.5 125.5,183.5 Z"/></g>
<g><path style="opacity:1" fill="#2cb280" d="M 125.5,183.5 C 125.5,184.5 125.5,185.5 125.5,186.5C 98.7537,195.749 82.4204,214.249 76.5,242C 76.528,243.07 76.8614,243.903 77.5,244.5C 71.7549,250.324 68.4216,257.324 67.5,265.5C 66.6829,267.969 66.1829,270.635 66,273.5C 61.6341,266.766 57.8008,259.766 54.5,252.5C 54.8138,244.284 56.3138,236.284 59,228.5C 71.7774,199.69 93.9441,184.69 125.5,183.5 Z"/></g>
<g><path style="opacity:1" fill="#38c37a" d="M 125.5,186.5 C 126.612,193.225 128.278,199.891 130.5,206.5C 124.852,215.129 120.852,224.462 118.5,234.5C 103.241,232.012 89.5745,235.345 77.5,244.5C 76.8614,243.903 76.528,243.07 76.5,242C 82.4204,214.249 98.7537,195.749 125.5,186.5 Z"/></g>
<g><path style="opacity:1" fill="#c5daf1" d="M 213.5,188.5 C 189.361,194.133 171.861,208.133 161,230.5C 160.018,233.775 160.851,236.441 163.5,238.5C 156.825,238.666 150.158,238.5 143.5,238C 141.224,237.126 139.89,235.459 139.5,233C 153.748,201.036 178.415,186.202 213.5,188.5 Z"/></g>
<g><path style="opacity:1" fill="#dae6f7" d="M 213.5,188.5 C 216.148,188.738 217.982,190.072 219,192.5C 219.667,206.5 219.667,220.5 219,234.5C 217.833,235.667 216.667,236.833 215.5,238C 198.17,238.5 180.837,238.667 163.5,238.5C 160.851,236.441 160.018,233.775 161,230.5C 171.861,208.133 189.361,194.133 213.5,188.5 Z"/></g>
<g><path style="opacity:1" fill="#a8683e" d="M 20.5,195.5 C 31.8333,214.5 43.1667,233.5 54.5,252.5C 57.8008,259.766 61.6341,266.766 66,273.5C 66.1829,270.635 66.6829,267.969 67.5,265.5C 67.5,267.833 67.5,270.167 67.5,272.5C 71.1667,272.5 74.8333,272.5 78.5,272.5C 82.3714,272.185 86.0381,272.518 89.5,273.5C 82.1667,273.5 74.8333,273.5 67.5,273.5C 69.9406,279.715 72.9406,285.715 76.5,291.5C 80.7828,292.492 85.1161,292.826 89.5,292.5C 85.6877,293.324 81.6877,293.824 77.5,294C 78.7433,295.154 79.7433,296.488 80.5,298C 82.4727,298.495 84.4727,298.662 86.5,298.5C 86.3333,346.834 86.5,395.168 87,443.5C 88.7073,445.037 90.2073,446.704 91.5,448.5C 81.4815,440.815 72.8149,431.815 65.5,421.5C 65.6667,381.832 65.5,342.165 65,302.5C 48.7409,273.643 32.2409,244.976 15.5,216.5C 16.3863,209.289 18.053,202.289 20.5,195.5 Z"/></g>
<g><path style="opacity:1" fill="#be7d52" d="M 490.5,196.5 C 493.082,202.827 494.748,209.493 495.5,216.5C 479.012,244.806 462.512,273.139 446,301.5C 445.5,341.499 445.333,381.499 445.5,421.5C 401.81,474.018 345.81,504.018 277.5,511.5C 262.833,511.5 248.167,511.5 233.5,511.5C 182.516,506.172 137.183,487.339 97.5,455C 95.2941,452.963 93.2941,450.797 91.5,448.5C 90.2073,446.704 88.7073,445.037 87,443.5C 86.5,395.168 86.3333,346.834 86.5,298.5C 98.5,298.5 110.5,298.5 122.5,298.5C 128.167,298.5 133.833,298.5 139.5,298.5C 144.833,298.5 150.167,298.5 155.5,298.5C 161.167,298.5 166.833,298.5 172.5,298.5C 193.167,298.5 213.833,298.5 234.5,298.5C 240.167,298.5 245.833,298.5 251.5,298.5C 256.833,298.5 262.167,298.5 267.5,298.5C 273.167,298.5 278.833,298.5 284.5,298.5C 297.167,298.5 309.833,298.5 322.5,298.5C 327.167,298.5 331.833,298.5 336.5,298.5C 359.833,298.5 383.167,298.5 406.5,298.5C 411.5,298.5 416.5,298.5 421.5,298.5C 424.518,298.665 427.518,298.498 430.5,298C 433.795,292.903 436.795,287.737 439.5,282.5C 455.996,253.503 472.996,224.837 490.5,196.5 Z"/></g>
<g><path style="opacity:1" fill="#d4e2f5" d="M 235.5,197.5 C 238.893,197.062 241.893,197.895 244.5,200C 255.246,207.741 263.413,217.575 269,229.5C 270.123,232.956 269.29,235.79 266.5,238C 256.5,238.667 246.5,238.667 236.5,238C 235.584,237.626 234.75,237.126 234,236.5C 232.375,224.596 232.042,212.596 233,200.5C 233.698,199.309 234.531,198.309 235.5,197.5 Z"/></g>
<g><path style="opacity:1" fill="#60d781" d="M 421.5,298.5 C 416.5,298.5 411.5,298.5 406.5,298.5C 406.823,275.455 406.49,252.455 405.5,229.5C 404.975,228.808 404.308,228.308 403.5,228C 382.169,227.5 360.836,227.333 339.5,227.5C 336.15,227.335 332.817,227.502 329.5,228C 328.692,228.308 328.025,228.808 327.5,229.5C 326.864,236.963 326.198,244.296 325.5,251.5C 322.115,245.781 317.448,241.448 311.5,238.5C 311.334,231.825 311.5,225.158 312,218.5C 313.167,216 315,214.167 317.5,213C 349.833,212.333 382.167,212.333 414.5,213C 417.583,213.786 419.749,215.619 421,218.5C 421.5,245.165 421.667,271.831 421.5,298.5 Z"/></g>
<g><path style="opacity:0.992" fill="#2e4c88" d="M 15.5,216.5 C 32.2409,244.976 48.7409,273.643 65,302.5C 65.5,342.165 65.6667,381.832 65.5,421.5C 23.9534,370.007 5.7867,311.007 11,244.5C 11.6324,234.89 13.1324,225.556 15.5,216.5 Z"/></g>
<g><path style="opacity:0.991" fill="#2e4c88" d="M 495.5,216.5 C 508.951,284.078 496.785,346.745 459,404.5C 454.636,410.354 450.136,416.021 445.5,421.5C 445.333,381.499 445.5,341.499 446,301.5C 462.512,273.139 479.012,244.806 495.5,216.5 Z"/></g>
<g><path style="opacity:1" fill="#30b380" d="M 339.5,227.5 C 338.531,228.309 337.698,229.309 337,230.5C 336.5,253.164 336.333,275.831 336.5,298.5C 331.833,298.5 327.167,298.5 322.5,298.5C 325.269,294.399 327.602,290.065 329.5,285.5C 332.12,276.802 332.12,268.135 329.5,259.5C 328.694,256.554 327.361,253.888 325.5,251.5C 326.198,244.296 326.864,236.963 327.5,229.5C 328.025,228.808 328.692,228.308 329.5,228C 332.817,227.502 336.15,227.335 339.5,227.5 Z"/></g>
<g><path style="opacity:1" fill="#38c47a" d="M 339.5,227.5 C 360.836,227.333 382.169,227.5 403.5,228C 404.308,228.308 404.975,228.808 405.5,229.5C 406.49,252.455 406.823,275.455 406.5,298.5C 383.167,298.5 359.833,298.5 336.5,298.5C 336.333,275.831 336.5,253.164 337,230.5C 337.698,229.309 338.531,228.309 339.5,227.5 Z"/></g>
<g><path style="opacity:1" fill="#f9fcfd" d="M 364.5,240.5 C 366.981,240.323 368.814,241.323 370,243.5C 371.785,248.19 373.951,252.69 376.5,257C 381.852,257.521 387.185,258.187 392.5,259C 394.211,260.133 394.711,261.633 394,263.5C 390.333,267.167 386.667,270.833 383,274.5C 383.159,279.161 383.659,283.827 384.5,288.5C 384.46,290.429 384.127,292.262 383.5,294C 382.5,294.667 381.5,294.667 380.5,294C 375.959,291.299 371.292,288.799 366.5,286.5C 361.553,289.557 356.386,292.224 351,294.5C 349.739,294.241 348.739,293.574 348,292.5C 348.335,286.983 349.169,281.483 350.5,276C 347.048,271.545 343.214,267.378 339,263.5C 338.333,262.167 338.333,260.833 339,259.5C 345.178,258.275 351.345,256.942 357.5,255.5C 359.588,250.327 361.921,245.327 364.5,240.5 Z"/></g>
<g><path style="opacity:1" fill="#b7092b" d="M 191.5,251.5 C 199.507,251.334 207.507,251.5 215.5,252C 219.5,256.333 219.5,260.667 215.5,265C 207.5,265.667 199.5,265.667 191.5,265C 186.248,260.506 186.248,256.006 191.5,251.5 Z"/></g>
<g><path style="opacity:1" fill="#fc941a" d="M 329.5,259.5 C 332.12,268.135 332.12,276.802 329.5,285.5C 317.683,288.68 313.016,284.347 315.5,272.5C 313.016,260.653 317.683,256.32 329.5,259.5 Z"/></g>
<g><path style="opacity:1" fill="#fefefe" d="M 89.5,273.5 C 90.4584,273.953 91.2917,274.619 92,275.5C 92.6667,280.5 92.6667,285.5 92,290.5C 91.2917,291.381 90.4584,292.047 89.5,292.5C 85.1161,292.826 80.7828,292.492 76.5,291.5C 72.9406,285.715 69.9406,279.715 67.5,273.5C 74.8333,273.5 82.1667,273.5 89.5,273.5 Z"/></g>
<g><path style="opacity:1" fill="#ffae11" d="M 172.5,298.5 C 166.833,298.5 161.167,298.5 155.5,298.5C 150.098,294.56 144.765,294.56 139.5,298.5C 133.833,298.5 128.167,298.5 122.5,298.5C 125.255,289.911 130.921,284.078 139.5,281C 155.437,277.964 166.437,283.797 172.5,298.5 Z"/></g>
<g><path style="opacity:1" fill="#ffae11" d="M 284.5,298.5 C 278.833,298.5 273.167,298.5 267.5,298.5C 262.098,294.56 256.765,294.56 251.5,298.5C 245.833,298.5 240.167,298.5 234.5,298.5C 237.255,289.911 242.921,284.078 251.5,281C 267.437,277.964 278.437,283.797 284.5,298.5 Z"/></g>
<g><path style="opacity:1" fill="#ffdb88" d="M 155.5,298.5 C 150.167,298.5 144.833,298.5 139.5,298.5C 144.765,294.56 150.098,294.56 155.5,298.5 Z"/></g>
<g><path style="opacity:1" fill="#ffdb88" d="M 267.5,298.5 C 262.167,298.5 256.833,298.5 251.5,298.5C 256.765,294.56 262.098,294.56 267.5,298.5 Z"/></g>
<g><path style="opacity:1" fill="#feaf11" d="M 399.5,318.5 C 396.967,321.604 395.967,325.271 396.5,329.5C 395.967,333.729 396.967,337.396 399.5,340.5C 392.492,340.666 385.492,340.5 378.5,340C 378,339.5 377.5,339 377,338.5C 376.333,332.5 376.333,326.5 377,320.5C 377.5,320 378,319.5 378.5,319C 385.492,318.5 392.492,318.334 399.5,318.5 Z"/></g>
<g><path style="opacity:1" fill="#fec950" d="M 399.5,318.5 C 406.508,318.334 413.508,318.5 420.5,319C 421.667,319.5 422.5,320.333 423,321.5C 423.667,326.833 423.667,332.167 423,337.5C 422.5,338.667 421.667,339.5 420.5,340C 413.508,340.5 406.508,340.666 399.5,340.5C 396.967,337.396 395.967,333.729 396.5,329.5C 395.967,325.271 396.967,321.604 399.5,318.5 Z"/></g>
<g><path style="opacity:1" fill="#ee9615" d="M 264.5,344.5 C 236.53,347.255 217.696,361.922 208,388.5C 200.326,427.999 215.159,454.832 252.5,469C 255.432,469.953 258.432,470.453 261.5,470.5C 237.349,472.682 217.849,464.015 203,444.5C 184.111,411.998 188.278,382.832 215.5,357C 230.154,345.754 246.487,341.587 264.5,344.5 Z"/></g>
<g><path style="opacity:1" fill="#feae10" d="M 264.5,344.5 C 298.112,351.281 316.445,371.781 319.5,406C 317.662,439.497 300.662,460.83 268.5,470C 266.19,470.497 263.857,470.663 261.5,470.5C 258.432,470.453 255.432,469.953 252.5,469C 215.159,454.832 200.326,427.999 208,388.5C 217.696,361.922 236.53,347.255 264.5,344.5 Z"/></g>
<g><path style="opacity:1" fill="#db722b" d="M 224.5,385.5 C 234.039,384.869 238.206,389.203 237,398.5C 234.081,404.025 229.581,405.858 223.5,404C 216.621,397.35 216.955,391.183 224.5,385.5 Z"/></g>
<g><path style="opacity:1" fill="#db722b" d="M 278.5,385.5 C 288.492,384.327 292.992,388.66 292,398.5C 289.081,404.025 284.581,405.858 278.5,404C 271.86,397.76 271.86,391.593 278.5,385.5 Z"/></g>
<g><path style="opacity:1" fill="#db722b" d="M 222.5,420.5 C 224.527,420.338 226.527,420.505 228.5,421C 240.496,437.772 255.496,441.106 273.5,431C 276.266,427.478 279.266,424.145 282.5,421C 288.629,419.561 292.296,421.894 293.5,428C 287.572,440.159 277.905,447.826 264.5,451C 247.63,453.932 233.463,449.099 222,436.5C 220.09,433.844 218.59,431.011 217.5,428C 217.831,424.52 219.498,422.02 222.5,420.5 Z"/></g>
</svg>
